\relax 
\providecommand\hyper@newdestlabel[2]{}
\providecommand\HyperFirstAtBeginDocument{\AtBeginDocument}
\HyperFirstAtBeginDocument{\ifx\hyper@anchor\@undefined
\global\let\oldcontentsline\contentsline
\gdef\contentsline#1#2#3#4{\oldcontentsline{#1}{#2}{#3}}
\global\let\oldnewlabel\newlabel
\gdef\newlabel#1#2{\newlabelxx{#1}#2}
\gdef\newlabelxx#1#2#3#4#5#6{\oldnewlabel{#1}{{#2}{#3}}}
\AtEndDocument{\ifx\hyper@anchor\@undefined
\let\contentsline\oldcontentsline
\let\newlabel\oldnewlabel
\fi}
\fi}
\global\let\hyper@last\relax 
\gdef\HyperFirstAtBeginDocument#1{#1}
\providecommand*\HyPL@Entry[1]{}
\bibstyle{abbrvnat_trucado}
\providecommand\babel@aux[2]{}
\@nameuse{bbl@beforestart}
\catcode `"\active 
\catcode `<\active 
\catcode `>\active 
\@nameuse{es@quoting}
\HyPL@Entry{0<</P(\376\377\000p\000r\000t)>>}
\providecommand \oddpage@label [2]{}
\babel@aux{spanish}{}
\HyPL@Entry{1<</P(\376\377\000v\000p\000r\000t)>>}
\HyPL@Entry{2<</S/r>>}
\citation{1974_Knuth}
\citation{1968_Dijkstra}
\citation{1974_Knuth}
\citation{1974_Knuth}
\HyPL@Entry{8<</S/D>>}
\@writefile{toc}{\contentsline {chapter}{\numberline {1}Introducción}{1}{chapter.1}\protected@file@percent }
\@writefile{lof}{\addvspace {10\p@ }}
\@writefile{lot}{\addvspace {10\p@ }}
\@writefile{loa}{\addvspace {10\p@ }}
\@writefile{lof}{\contentsline {figure}{\numberline {1}{\ignorespaces Un plato de espaguetis sin estructurar\relax }}{1}{figure.caption.1}\protected@file@percent }
\providecommand*\caption@xref[2]{\@setref\relax\@undefined{#1}}
\newlabel{fig_pro}{{1}{1}{Un plato de espaguetis sin estructurar\relax }{figure.caption.1}{}}
\citation{1974_Knuth}
\citation{1987_Rubin}
\citation{1987_Moore}
\citation{1987_Dijkstra}
\citation{1972_Knuth}
\citation{1974_Knuth}
\@writefile{toc}{\contentsline {chapter}{\numberline {2}\emph  {Text scanning}}{5}{chapter.2}\protected@file@percent }
\@writefile{lof}{\addvspace {10\p@ }}
\@writefile{lot}{\addvspace {10\p@ }}
\@writefile{loa}{\addvspace {10\p@ }}
\@writefile{loa}{\contentsline {algocf}{\numberline {1}{\ignorespaces con\relax }}{5}{algocf.1}\protected@file@percent }
\@writefile{loa}{\contentsline {algocf}{\numberline {2}{\ignorespaces sin\relax }}{5}{algocf.2}\protected@file@percent }
\@writefile{lof}{\contentsline {figure}{\numberline {2}{\ignorespaces \relax }}{6}{figure.caption.2}\protected@file@percent }
\citation{sommerville2011software}
\@writefile{toc}{\contentsline {chapter}{\numberline {3}Recuento de saltos}{9}{chapter.3}\protected@file@percent }
\@writefile{lof}{\addvspace {10\p@ }}
\@writefile{lot}{\addvspace {10\p@ }}
\@writefile{loa}{\addvspace {10\p@ }}
\@writefile{toc}{\contentsline {chapter}{\numberline {4}Conclusiones}{11}{chapter.4}\protected@file@percent }
\@writefile{lof}{\addvspace {10\p@ }}
\@writefile{lot}{\addvspace {10\p@ }}
\@writefile{loa}{\addvspace {10\p@ }}
\bibdata{refs}
\bibcite{1968_Dijkstra}{{1}{1968}{{Dijkstra}}{{}}}
\bibcite{1987_Dijkstra}{{2}{1987}{{Dijkstra}}{{}}}
\bibcite{1974_Knuth}{{3}{1974}{{Knuth}}{{}}}
\bibcite{1972_Knuth}{{4}{1972}{{Knuth y Floyd}}{{}}}
\bibcite{1987_Moore}{{5}{1987}{{Moore et~al.}}{{Moore, Musciano, y Liebhaber}}}
\bibcite{1987_Rubin}{{6}{1987}{{Rubin}}{{}}}
\bibcite{sommerville2011software}{{7}{2011}{{Sommerville}}{{}}}
\@writefile{toc}{\contentsline {chapter}{\numberline {}Referencias}{13}{section*.4}\protected@file@percent }
\gdef \@abspage@last{21}
