\babel@toc {spanish}{}\relax 
\contentsline {chapter}{\numberline {1}Introducción}{1}{chapter.1}%
\contentsline {chapter}{\numberline {2}\emph {Text scanning}}{5}{chapter.2}%
\contentsline {chapter}{\numberline {3}Recuento de saltos}{9}{chapter.3}%
\contentsline {chapter}{\numberline {4}Conclusiones}{11}{chapter.4}%
\contentsline {chapter}{\numberline {}Referencias}{13}{section*.4}%
