This is BibTeX, Version 0.99d (TeX Live 2021/W32TeX)
Capacity: max_strings=200000, hash_size=200000, hash_prime=170003
The top-level auxiliary file: tfg.aux
The style file: abbrvnat_trucado.bst
Database file #1: refs.bib
You've used 7 entries,
            2796 wiz_defined-function locations,
            654 strings with 5676 characters,
and the built_in function-call counts, 2862 in all, are:
= -- 292
> -- 101
< -- 6
+ -- 37
- -- 30
* -- 199
:= -- 498
add.period$ -- 20
call.type$ -- 7
change.case$ -- 24
chr.to.int$ -- 7
cite$ -- 14
duplicate$ -- 129
empty$ -- 257
format.name$ -- 39
if$ -- 604
int.to.chr$ -- 1
int.to.str$ -- 1
missing$ -- 6
newline$ -- 48
num.names$ -- 28
pop$ -- 53
preamble$ -- 1
purify$ -- 17
quote$ -- 0
skip$ -- 92
stack$ -- 0
substring$ -- 129
swap$ -- 7
text.length$ -- 0
text.prefix$ -- 0
top$ -- 0
type$ -- 77
warning$ -- 0
while$ -- 31
width$ -- 0
write$ -- 107
